module gitlab.com/robedwards/buildey/cli

go 1.21.3

require (
	github.com/spf13/cobra v1.8.0
	golang.org/x/oauth2 v0.13.0
	google.golang.org/api v0.151.0
)

require (
	dario.cat/mergo v1.0.0 // indirect
	github.com/Microsoft/go-winio v0.6.1 // indirect
	github.com/ProtonMail/go-crypto v0.0.0-20230828082145-3c4c8a2d2371 // indirect
	github.com/cloudflare/circl v1.3.3 // indirect
	github.com/cyphar/filepath-securejoin v0.2.4 // indirect
	github.com/emirpasic/gods v1.18.1 // indirect
	github.com/go-git/gcfg v1.5.1-0.20230307220236-3a3c6141e376 // indirect
	github.com/go-git/go-billy/v5 v5.5.0 // indirect
	github.com/jbenet/go-context v0.0.0-20150711004518-d14ea06fba99 // indirect
	github.com/kevinburke/ssh_config v1.2.0 // indirect
	github.com/mattn/go-runewidth v0.0.9 // indirect
	github.com/pjbgf/sha1cd v0.3.0 // indirect
	github.com/sergi/go-diff v1.1.0 // indirect
	github.com/skeema/knownhosts v1.2.1 // indirect
	github.com/xanzy/ssh-agent v0.3.3 // indirect
	golang.org/x/mod v0.12.0 // indirect
	golang.org/x/tools v0.13.0 // indirect
	gopkg.in/warnings.v0 v0.1.2 // indirect
)

require (
	cloud.google.com/go/compute v1.23.1 // indirect
	cloud.google.com/go/compute/metadata v0.2.3 // indirect
	github.com/go-git/go-git/v5 v5.10.1
	github.com/golang/groupcache v0.0.0-20210331224755-41bb18bfe9da // indirect
	github.com/golang/protobuf v1.5.3 // indirect
	github.com/google/s2a-go v0.1.7 // indirect
	github.com/google/uuid v1.4.0 // indirect
	github.com/googleapis/enterprise-certificate-proxy v0.3.2 // indirect
	github.com/googleapis/gax-go/v2 v2.12.0 // indirect
	github.com/inconshreveable/mousetrap v1.1.0 // indirect
	github.com/kyokomi/emoji v2.2.4+incompatible
	github.com/olekukonko/tablewriter v0.0.5
	github.com/spf13/pflag v1.0.5 // indirect
	go.opencensus.io v0.24.0 // indirect
	golang.org/x/crypto v0.15.0 // indirect
	golang.org/x/net v0.18.0 // indirect
	golang.org/x/sys v0.14.0 // indirect
	golang.org/x/text v0.14.0 // indirect
	google.golang.org/appengine v1.6.7 // indirect
	google.golang.org/genproto/googleapis/rpc v0.0.0-20231030173426-d783a09b4405 // indirect
	google.golang.org/grpc v1.59.0 // indirect
	google.golang.org/protobuf v1.31.0 // indirect
)
